[
  {
    "line": 1,
    "elements": [
      {
        "line": 17,
        "name": "Adicionar um novo item no carrinho de compras",
        "description": "",
        "id": "adicionar-item-ao-carrinho-de-compras;adicionar-um-novo-item-no-carrinho-de-compras;;2",
        "type": "scenario",
        "keyword": "Scenario Outline",
        "steps": [
          {
            "result": {
              "duration": 219125974,
              "status": "passed"
            },
            "line": 11,
            "name": "o carrinho esta vazio",
            "match": {
              "location": "CarrinhoComprasTest.instanciarCarrinho()"
            },
            "keyword": "Given "
          },
          {
            "result": {
              "duration": 15581525,
              "status": "passed"
            },
            "line": 12,
            "name": "o usuário adicionar o produto de código: 1 descrição: relógio valor unitário: 3.75 quantidade 1",
            "match": {
              "arguments": [
                {
                  "val": "1",
                  "offset": 41
                },
                {
                  "val": "relógio",
                  "offset": 54
                },
                {
                  "val": "3.75",
                  "offset": 78
                },
                {
                  "val": "1",
                  "offset": 94
                }
              ],
              "location": "CarrinhoComprasTest.adicionarProduto(Long,String,BigDecimal,int)"
            },
            "matchedColumns": [
              0,
              1,
              2,
              3
            ],
            "keyword": "When "
          },
          {
            "result": {
              "duration": 780717,
              "status": "passed"
            },
            "line": 13,
            "name": "carrinho deverá possuir produto de código: 1 descrição: relógio valor unitário: 3.75 quantidade 1",
            "match": {
              "arguments": [
                {
                  "val": "1",
                  "offset": 43
                },
                {
                  "val": "relógio",
                  "offset": 56
                },
                {
                  "val": "3.75",
                  "offset": 80
                },
                {
                  "val": "1",
                  "offset": 96
                }
              ],
              "location": "CarrinhoComprasTest.validarSeProdutoExisteNoCarrinho(Long,String,BigDecimal,int)"
            },
            "matchedColumns": [
              0,
              1,
              2,
              3
            ],
            "keyword": "Then "
          },
          {
            "result": {
              "duration": 253538,
              "status": "passed"
            },
            "line": 14,
            "name": "carrinho deverá possuir valor total de 3.75 e quantidade de items 1",
            "match": {
              "arguments": [
                {
                  "val": "3.75",
                  "offset": 39
                },
                {
                  "val": "1",
                  "offset": 66
                }
              ],
              "location": "CarrinhoComprasTest.validarSeProdutoExisteNoCarrinho(String,int)"
            },
            "matchedColumns": [
              4
            ],
            "keyword": "Then "
          }
        ]
      },
      {
        "line": 18,
        "name": "Adicionar um novo item no carrinho de compras",
        "description": "",
        "id": "adicionar-item-ao-carrinho-de-compras;adicionar-um-novo-item-no-carrinho-de-compras;;3",
        "type": "scenario",
        "keyword": "Scenario Outline",
        "steps": [
          {
            "result": {
              "duration": 57846,
              "status": "passed"
            },
            "line": 11,
            "name": "o carrinho esta vazio",
            "match": {
              "location": "CarrinhoComprasTest.instanciarCarrinho()"
            },
            "keyword": "Given "
          },
          {
            "result": {
              "duration": 274461,
              "status": "passed"
            },
            "line": 12,
            "name": "o usuário adicionar o produto de código: 1 descrição: relógio valor unitário: 3.75 quantidade 2",
            "match": {
              "arguments": [
                {
                  "val": "1",
                  "offset": 41
                },
                {
                  "val": "relógio",
                  "offset": 54
                },
                {
                  "val": "3.75",
                  "offset": 78
                },
                {
                  "val": "2",
                  "offset": 94
                }
              ],
              "location": "CarrinhoComprasTest.adicionarProduto(Long,String,BigDecimal,int)"
            },
            "matchedColumns": [
              0,
              1,
              2,
              3
            ],
            "keyword": "When "
          },
          {
            "result": {
              "duration": 341743,
              "status": "passed"
            },
            "line": 13,
            "name": "carrinho deverá possuir produto de código: 1 descrição: relógio valor unitário: 3.75 quantidade 2",
            "match": {
              "arguments": [
                {
                  "val": "1",
                  "offset": 43
                },
                {
                  "val": "relógio",
                  "offset": 56
                },
                {
                  "val": "3.75",
                  "offset": 80
                },
                {
                  "val": "2",
                  "offset": 96
                }
              ],
              "location": "CarrinhoComprasTest.validarSeProdutoExisteNoCarrinho(Long,String,BigDecimal,int)"
            },
            "matchedColumns": [
              0,
              1,
              2,
              3
            ],
            "keyword": "Then "
          },
          {
            "result": {
              "duration": 189538,
              "status": "passed"
            },
            "line": 14,
            "name": "carrinho deverá possuir valor total de 7.50 e quantidade de items 1",
            "match": {
              "arguments": [
                {
                  "val": "7.50",
                  "offset": 39
                },
                {
                  "val": "1",
                  "offset": 66
                }
              ],
              "location": "CarrinhoComprasTest.validarSeProdutoExisteNoCarrinho(String,int)"
            },
            "matchedColumns": [
              4
            ],
            "keyword": "Then "
          }
        ]
      },
      {
        "line": 19,
        "name": "Adicionar um novo item no carrinho de compras",
        "description": "",
        "id": "adicionar-item-ao-carrinho-de-compras;adicionar-um-novo-item-no-carrinho-de-compras;;4",
        "type": "scenario",
        "keyword": "Scenario Outline",
        "steps": [
          {
            "result": {
              "duration": 43897,
              "status": "passed"
            },
            "line": 11,
            "name": "o carrinho esta vazio",
            "match": {
              "location": "CarrinhoComprasTest.instanciarCarrinho()"
            },
            "keyword": "Given "
          },
          {
            "result": {
              "duration": 271179,
              "status": "passed"
            },
            "line": 12,
            "name": "o usuário adicionar o produto de código: 1 descrição: relógio valor unitário: 3.75 quantidade 3",
            "match": {
              "arguments": [
                {
                  "val": "1",
                  "offset": 41
                },
                {
                  "val": "relógio",
                  "offset": 54
                },
                {
                  "val": "3.75",
                  "offset": 78
                },
                {
                  "val": "3",
                  "offset": 94
                }
              ],
              "location": "CarrinhoComprasTest.adicionarProduto(Long,String,BigDecimal,int)"
            },
            "matchedColumns": [
              0,
              1,
              2,
              3
            ],
            "keyword": "When "
          },
          {
            "result": {
              "duration": 280616,
              "status": "passed"
            },
            "line": 13,
            "name": "carrinho deverá possuir produto de código: 1 descrição: relógio valor unitário: 3.75 quantidade 3",
            "match": {
              "arguments": [
                {
                  "val": "1",
                  "offset": 43
                },
                {
                  "val": "relógio",
                  "offset": 56
                },
                {
                  "val": "3.75",
                  "offset": 80
                },
                {
                  "val": "3",
                  "offset": 96
                }
              ],
              "location": "CarrinhoComprasTest.validarSeProdutoExisteNoCarrinho(Long,String,BigDecimal,int)"
            },
            "matchedColumns": [
              0,
              1,
              2,
              3
            ],
            "keyword": "Then "
          },
          {
            "result": {
              "duration": 139487,
              "status": "passed"
            },
            "line": 14,
            "name": "carrinho deverá possuir valor total de 11.25 e quantidade de items 1",
            "match": {
              "arguments": [
                {
                  "val": "11.25",
                  "offset": 39
                },
                {
                  "val": "1",
                  "offset": 67
                }
              ],
              "location": "CarrinhoComprasTest.validarSeProdutoExisteNoCarrinho(String,int)"
            },
            "matchedColumns": [
              4
            ],
            "keyword": "Then "
          }
        ]
      },
      {
        "line": 20,
        "name": "Adicionar um novo item no carrinho de compras",
        "description": "",
        "id": "adicionar-item-ao-carrinho-de-compras;adicionar-um-novo-item-no-carrinho-de-compras;;5",
        "type": "scenario",
        "keyword": "Scenario Outline",
        "steps": [
          {
            "result": {
              "duration": 42666,
              "status": "passed"
            },
            "line": 11,
            "name": "o carrinho esta vazio",
            "match": {
              "location": "CarrinhoComprasTest.instanciarCarrinho()"
            },
            "keyword": "Given "
          },
          {
            "result": {
              "duration": 260102,
              "status": "passed"
            },
            "line": 12,
            "name": "o usuário adicionar o produto de código: 1 descrição: tv valor unitário: 123 quantidade 1",
            "match": {
              "arguments": [
                {
                  "val": "1",
                  "offset": 41
                },
                {
                  "val": "tv",
                  "offset": 54
                },
                {
                  "val": "123",
                  "offset": 73
                },
                {
                  "val": "1",
                  "offset": 88
                }
              ],
              "location": "CarrinhoComprasTest.adicionarProduto(Long,String,BigDecimal,int)"
            },
            "matchedColumns": [
              0,
              1,
              2,
              3
            ],
            "keyword": "When "
          },
          {
            "result": {
              "duration": 243282,
              "status": "passed"
            },
            "line": 13,
            "name": "carrinho deverá possuir produto de código: 1 descrição: tv valor unitário: 123 quantidade 1",
            "match": {
              "arguments": [
                {
                  "val": "1",
                  "offset": 43
                },
                {
                  "val": "tv",
                  "offset": 56
                },
                {
                  "val": "123",
                  "offset": 75
                },
                {
                  "val": "1",
                  "offset": 90
                }
              ],
              "location": "CarrinhoComprasTest.validarSeProdutoExisteNoCarrinho(Long,String,BigDecimal,int)"
            },
            "matchedColumns": [
              0,
              1,
              2,
              3
            ],
            "keyword": "Then "
          },
          {
            "result": {
              "duration": 119794,
              "status": "passed"
            },
            "line": 14,
            "name": "carrinho deverá possuir valor total de 123.0 e quantidade de items 1",
            "match": {
              "arguments": [
                {
                  "val": "123.0",
                  "offset": 39
                },
                {
                  "val": "1",
                  "offset": 67
                }
              ],
              "location": "CarrinhoComprasTest.validarSeProdutoExisteNoCarrinho(String,int)"
            },
            "matchedColumns": [
              4
            ],
            "keyword": "Then "
          }
        ]
      },
      {
        "line": 31,
        "name": "Adicionar um item já existente no carrinho de compras",
        "description": "",
        "id": "adicionar-item-ao-carrinho-de-compras;adicionar-um-item-já-existente-no-carrinho-de-compras;;2",
        "type": "scenario",
        "keyword": "Scenario Outline",
        "steps": [
          {
            "result": {
              "duration": 32410,
              "status": "passed"
            },
            "line": 23,
            "name": "o carrinho esta vazio",
            "match": {
              "location": "CarrinhoComprasTest.instanciarCarrinho()"
            },
            "keyword": "Given "
          },
          {
            "result": {
              "duration": 176821,
              "status": "passed"
            },
            "line": 24,
            "name": "o usuário adicionar o produto de código: 1 descrição: relógio valor unitário: 3.75 quantidade 2",
            "match": {
              "arguments": [
                {
                  "val": "1",
                  "offset": 41
                },
                {
                  "val": "relógio",
                  "offset": 54
                },
                {
                  "val": "3.75",
                  "offset": 78
                },
                {
                  "val": "2",
                  "offset": 94
                }
              ],
              "location": "CarrinhoComprasTest.adicionarProduto(Long,String,BigDecimal,int)"
            },
            "matchedColumns": [
              0,
              1,
              2,
              4
            ],
            "keyword": "When "
          },
          {
            "result": {
              "duration": 202667,
              "status": "passed"
            },
            "line": 25,
            "name": "o usuário adicionar o produto de código: 1 descrição: relógio valor unitário: 3.75 quantidade 3",
            "match": {
              "arguments": [
                {
                  "val": "1",
                  "offset": 41
                },
                {
                  "val": "relógio",
                  "offset": 54
                },
                {
                  "val": "3.75",
                  "offset": 78
                },
                {
                  "val": "3",
                  "offset": 94
                }
              ],
              "location": "CarrinhoComprasTest.adicionarProduto(Long,String,BigDecimal,int)"
            },
            "matchedColumns": [
              0,
              1,
              3,
              5
            ],
            "keyword": "When "
          },
          {
            "result": {
              "duration": 282257,
              "status": "passed"
            },
            "line": 26,
            "name": "carrinho deverá possuir produto de código: 1 descrição: relógio valor unitário: 3.75 quantidade 5",
            "match": {
              "arguments": [
                {
                  "val": "1",
                  "offset": 43
                },
                {
                  "val": "relógio",
                  "offset": 56
                },
                {
                  "val": "3.75",
                  "offset": 80
                },
                {
                  "val": "5",
                  "offset": 96
                }
              ],
              "location": "CarrinhoComprasTest.validarSeProdutoExisteNoCarrinho(Long,String,BigDecimal,int)"
            },
            "matchedColumns": [
              0,
              1,
              3,
              6
            ],
            "keyword": "Then "
          },
          {
            "result": {
              "duration": 159589,
              "status": "passed"
            },
            "line": 27,
            "name": "carrinho deverá possuir valor total de 18.75 e quantidade de items 1",
            "match": {
              "arguments": [
                {
                  "val": "18.75",
                  "offset": 39
                },
                {
                  "val": "1",
                  "offset": 67
                }
              ],
              "location": "CarrinhoComprasTest.validarSeProdutoExisteNoCarrinho(String,int)"
            },
            "matchedColumns": [
              7
            ],
            "keyword": "Then "
          }
        ]
      },
      {
        "line": 32,
        "name": "Adicionar um item já existente no carrinho de compras",
        "description": "",
        "id": "adicionar-item-ao-carrinho-de-compras;adicionar-um-item-já-existente-no-carrinho-de-compras;;3",
        "type": "scenario",
        "keyword": "Scenario Outline",
        "steps": [
          {
            "result": {
              "duration": 53333,
              "status": "passed"
            },
            "line": 23,
            "name": "o carrinho esta vazio",
            "match": {
              "location": "CarrinhoComprasTest.instanciarCarrinho()"
            },
            "keyword": "Given "
          },
          {
            "result": {
              "duration": 228923,
              "status": "passed"
            },
            "line": 24,
            "name": "o usuário adicionar o produto de código: 1 descrição: relógio valor unitário: 3.75 quantidade 2",
            "match": {
              "arguments": [
                {
                  "val": "1",
                  "offset": 41
                },
                {
                  "val": "relógio",
                  "offset": 54
                },
                {
                  "val": "3.75",
                  "offset": 78
                },
                {
                  "val": "2",
                  "offset": 94
                }
              ],
              "location": "CarrinhoComprasTest.adicionarProduto(Long,String,BigDecimal,int)"
            },
            "matchedColumns": [
              0,
              1,
              2,
              4
            ],
            "keyword": "When "
          },
          {
            "result": {
              "duration": 224000,
              "status": "passed"
            },
            "line": 25,
            "name": "o usuário adicionar o produto de código: 1 descrição: relógio valor unitário: 4.50 quantidade 3",
            "match": {
              "arguments": [
                {
                  "val": "1",
                  "offset": 41
                },
                {
                  "val": "relógio",
                  "offset": 54
                },
                {
                  "val": "4.50",
                  "offset": 78
                },
                {
                  "val": "3",
                  "offset": 94
                }
              ],
              "location": "CarrinhoComprasTest.adicionarProduto(Long,String,BigDecimal,int)"
            },
            "matchedColumns": [
              0,
              1,
              3,
              5
            ],
            "keyword": "When "
          },
          {
            "result": {
              "duration": 516102,
              "status": "passed"
            },
            "line": 26,
            "name": "carrinho deverá possuir produto de código: 1 descrição: relógio valor unitário: 4.50 quantidade 5",
            "match": {
              "arguments": [
                {
                  "val": "1",
                  "offset": 43
                },
                {
                  "val": "relógio",
                  "offset": 56
                },
                {
                  "val": "4.50",
                  "offset": 80
                },
                {
                  "val": "5",
                  "offset": 96
                }
              ],
              "location": "CarrinhoComprasTest.validarSeProdutoExisteNoCarrinho(Long,String,BigDecimal,int)"
            },
            "matchedColumns": [
              0,
              1,
              3,
              6
            ],
            "keyword": "Then "
          },
          {
            "result": {
              "duration": 123077,
              "status": "passed"
            },
            "line": 27,
            "name": "carrinho deverá possuir valor total de 22.5 e quantidade de items 1",
            "match": {
              "arguments": [
                {
                  "val": "22.5",
                  "offset": 39
                },
                {
                  "val": "1",
                  "offset": 66
                }
              ],
              "location": "CarrinhoComprasTest.validarSeProdutoExisteNoCarrinho(String,int)"
            },
            "matchedColumns": [
              7
            ],
            "keyword": "Then "
          }
        ]
      },
      {
        "line": 33,
        "name": "Adicionar um item já existente no carrinho de compras",
        "description": "",
        "id": "adicionar-item-ao-carrinho-de-compras;adicionar-um-item-já-existente-no-carrinho-de-compras;;4",
        "type": "scenario",
        "keyword": "Scenario Outline",
        "steps": [
          {
            "result": {
              "duration": 45129,
              "status": "passed"
            },
            "line": 23,
            "name": "o carrinho esta vazio",
            "match": {
              "location": "CarrinhoComprasTest.instanciarCarrinho()"
            },
            "keyword": "Given "
          },
          {
            "result": {
              "duration": 266256,
              "status": "passed"
            },
            "line": 24,
            "name": "o usuário adicionar o produto de código: 1 descrição: relógio valor unitário: 3.75 quantidade 2",
            "match": {
              "arguments": [
                {
                  "val": "1",
                  "offset": 41
                },
                {
                  "val": "relógio",
                  "offset": 54
                },
                {
                  "val": "3.75",
                  "offset": 78
                },
                {
                  "val": "2",
                  "offset": 94
                }
              ],
              "location": "CarrinhoComprasTest.adicionarProduto(Long,String,BigDecimal,int)"
            },
            "matchedColumns": [
              0,
              1,
              2,
              4
            ],
            "keyword": "When "
          },
          {
            "result": {
              "duration": 253128,
              "status": "passed"
            },
            "line": 25,
            "name": "o usuário adicionar o produto de código: 1 descrição: relógio valor unitário: 3 quantidade 3",
            "match": {
              "arguments": [
                {
                  "val": "1",
                  "offset": 41
                },
                {
                  "val": "relógio",
                  "offset": 54
                },
                {
                  "val": "3",
                  "offset": 78
                },
                {
                  "val": "3",
                  "offset": 91
                }
              ],
              "location": "CarrinhoComprasTest.adicionarProduto(Long,String,BigDecimal,int)"
            },
            "matchedColumns": [
              0,
              1,
              3,
              5
            ],
            "keyword": "When "
          },
          {
            "result": {
              "duration": 278154,
              "status": "passed"
            },
            "line": 26,
            "name": "carrinho deverá possuir produto de código: 1 descrição: relógio valor unitário: 3 quantidade 5",
            "match": {
              "arguments": [
                {
                  "val": "1",
                  "offset": 43
                },
                {
                  "val": "relógio",
                  "offset": 56
                },
                {
                  "val": "3",
                  "offset": 80
                },
                {
                  "val": "5",
                  "offset": 93
                }
              ],
              "location": "CarrinhoComprasTest.validarSeProdutoExisteNoCarrinho(Long,String,BigDecimal,int)"
            },
            "matchedColumns": [
              0,
              1,
              3,
              6
            ],
            "keyword": "Then "
          },
          {
            "result": {
              "duration": 113231,
              "status": "passed"
            },
            "line": 27,
            "name": "carrinho deverá possuir valor total de 15.0 e quantidade de items 1",
            "match": {
              "arguments": [
                {
                  "val": "15.0",
                  "offset": 39
                },
                {
                  "val": "1",
                  "offset": 66
                }
              ],
              "location": "CarrinhoComprasTest.validarSeProdutoExisteNoCarrinho(String,int)"
            },
            "matchedColumns": [
              7
            ],
            "keyword": "Then "
          }
        ]
      },
      {
        "line": 44,
        "name": "Adicionar um item já existente no carrinho de compras",
        "description": "  Given",
        "id": "adicionar-item-ao-carrinho-de-compras;adicionar-um-item-já-existente-no-carrinho-de-compras;;2",
        "type": "scenario",
        "keyword": "Scenario Outline",
        "steps": [
          {
            "result": {
              "duration": 331898,
              "status": "passed"
            },
            "line": 37,
            "name": "o usuário adicionar o produto de código: 1 descrição: relógio valor unitário: 3.75 quantidade 2",
            "match": {
              "arguments": [
                {
                  "val": "1",
                  "offset": 41
                },
                {
                  "val": "relógio",
                  "offset": 54
                },
                {
                  "val": "3.75",
                  "offset": 78
                },
                {
                  "val": "2",
                  "offset": 94
                }
              ],
              "location": "CarrinhoComprasTest.adicionarProduto(Long,String,BigDecimal,int)"
            },
            "matchedColumns": [
              0,
              1,
              2,
              4
            ],
            "keyword": "When "
          },
          {
            "result": {
              "duration": 289641,
              "status": "passed"
            },
            "line": 38,
            "name": "o usuário adicionar o produto de código: 1 descrição: relógio valor unitário: 3.75 quantidade 3",
            "match": {
              "arguments": [
                {
                  "val": "1",
                  "offset": 41
                },
                {
                  "val": "relógio",
                  "offset": 54
                },
                {
                  "val": "3.75",
                  "offset": 78
                },
                {
                  "val": "3",
                  "offset": 94
                }
              ],
              "location": "CarrinhoComprasTest.adicionarProduto(Long,String,BigDecimal,int)"
            },
            "matchedColumns": [
              0,
              1,
              3,
              5
            ],
            "keyword": "When "
          },
          {
            "result": {
              "duration": 231384,
              "status": "passed"
            },
            "line": 39,
            "name": "carrinho deverá possuir produto de código: 1 descrição: relógio valor unitário: 3.75 quantidade 5",
            "match": {
              "arguments": [
                {
                  "val": "1",
                  "offset": 43
                },
                {
                  "val": "relógio",
                  "offset": 56
                },
                {
                  "val": "3.75",
                  "offset": 80
                },
                {
                  "val": "5",
                  "offset": 96
                }
              ],
              "location": "CarrinhoComprasTest.validarSeProdutoExisteNoCarrinho(Long,String,BigDecimal,int)"
            },
            "matchedColumns": [
              0,
              1,
              3,
              6
            ],
            "keyword": "Then "
          },
          {
            "result": {
              "duration": 88205,
              "status": "passed"
            },
            "line": 40,
            "name": "carrinho deverá possuir valor total de 18.75 e quantidade de items 1",
            "match": {
              "arguments": [
                {
                  "val": "18.75",
                  "offset": 39
                },
                {
                  "val": "1",
                  "offset": 67
                }
              ],
              "location": "CarrinhoComprasTest.validarSeProdutoExisteNoCarrinho(String,int)"
            },
            "matchedColumns": [
              7
            ],
            "keyword": "Then "
          }
        ]
      },
      {
        "line": 45,
        "name": "Adicionar um item já existente no carrinho de compras",
        "description": "  Given",
        "id": "adicionar-item-ao-carrinho-de-compras;adicionar-um-item-já-existente-no-carrinho-de-compras;;3",
        "type": "scenario",
        "keyword": "Scenario Outline",
        "steps": [
          {
            "result": {
              "duration": 264205,
              "status": "passed"
            },
            "line": 37,
            "name": "o usuário adicionar o produto de código: 1 descrição: relógio valor unitário: 3.75 quantidade 2",
            "match": {
              "arguments": [
                {
                  "val": "1",
                  "offset": 41
                },
                {
                  "val": "relógio",
                  "offset": 54
                },
                {
                  "val": "3.75",
                  "offset": 78
                },
                {
                  "val": "2",
                  "offset": 94
                }
              ],
              "location": "CarrinhoComprasTest.adicionarProduto(Long,String,BigDecimal,int)"
            },
            "matchedColumns": [
              0,
              1,
              2,
              4
            ],
            "keyword": "When "
          },
          {
            "result": {
              "duration": 260923,
              "status": "passed"
            },
            "line": 38,
            "name": "o usuário adicionar o produto de código: 1 descrição: relógio valor unitário: 4.50 quantidade 3",
            "match": {
              "arguments": [
                {
                  "val": "1",
                  "offset": 41
                },
                {
                  "val": "relógio",
                  "offset": 54
                },
                {
                  "val": "4.50",
                  "offset": 78
                },
                {
                  "val": "3",
                  "offset": 94
                }
              ],
              "location": "CarrinhoComprasTest.adicionarProduto(Long,String,BigDecimal,int)"
            },
            "matchedColumns": [
              0,
              1,
              3,
              5
            ],
            "keyword": "When "
          },
          {
            "result": {
              "duration": 284718,
              "status": "passed"
            },
            "line": 39,
            "name": "carrinho deverá possuir produto de código: 1 descrição: relógio valor unitário: 4.50 quantidade 5",
            "match": {
              "arguments": [
                {
                  "val": "1",
                  "offset": 43
                },
                {
                  "val": "relógio",
                  "offset": 56
                },
                {
                  "val": "4.50",
                  "offset": 80
                },
                {
                  "val": "5",
                  "offset": 96
                }
              ],
              "location": "CarrinhoComprasTest.validarSeProdutoExisteNoCarrinho(Long,String,BigDecimal,int)"
            },
            "matchedColumns": [
              0,
              1,
              3,
              6
            ],
            "keyword": "Then "
          },
          {
            "result": {
              "duration": 116513,
              "status": "passed"
            },
            "line": 40,
            "name": "carrinho deverá possuir valor total de 22.5 e quantidade de items 1",
            "match": {
              "arguments": [
                {
                  "val": "22.5",
                  "offset": 39
                },
                {
                  "val": "1",
                  "offset": 66
                }
              ],
              "location": "CarrinhoComprasTest.validarSeProdutoExisteNoCarrinho(String,int)"
            },
            "matchedColumns": [
              7
            ],
            "keyword": "Then "
          }
        ]
      },
      {
        "line": 46,
        "name": "Adicionar um item já existente no carrinho de compras",
        "description": "  Given",
        "id": "adicionar-item-ao-carrinho-de-compras;adicionar-um-item-já-existente-no-carrinho-de-compras;;4",
        "type": "scenario",
        "keyword": "Scenario Outline",
        "steps": [
          {
            "result": {
              "duration": 327384,
              "status": "passed"
            },
            "line": 37,
            "name": "o usuário adicionar o produto de código: 1 descrição: relógio valor unitário: 3.75 quantidade 2",
            "match": {
              "arguments": [
                {
                  "val": "1",
                  "offset": 41
                },
                {
                  "val": "relógio",
                  "offset": 54
                },
                {
                  "val": "3.75",
                  "offset": 78
                },
                {
                  "val": "2",
                  "offset": 94
                }
              ],
              "location": "CarrinhoComprasTest.adicionarProduto(Long,String,BigDecimal,int)"
            },
            "matchedColumns": [
              0,
              1,
              2,
              4
            ],
            "keyword": "When "
          },
          {
            "result": {
              "duration": 693332,
              "status": "passed"
            },
            "line": 38,
            "name": "o usuário adicionar o produto de código: 1 descrição: relógio valor unitário: 3 quantidade 3",
            "match": {
              "arguments": [
                {
                  "val": "1",
                  "offset": 41
                },
                {
                  "val": "relógio",
                  "offset": 54
                },
                {
                  "val": "3",
                  "offset": 78
                },
                {
                  "val": "3",
                  "offset": 91
                }
              ],
              "location": "CarrinhoComprasTest.adicionarProduto(Long,String,BigDecimal,int)"
            },
            "matchedColumns": [
              0,
              1,
              3,
              5
            ],
            "keyword": "When "
          },
          {
            "result": {
              "duration": 234667,
              "status": "passed"
            },
            "line": 39,
            "name": "carrinho deverá possuir produto de código: 1 descrição: relógio valor unitário: 3 quantidade 5",
            "match": {
              "arguments": [
                {
                  "val": "1",
                  "offset": 43
                },
                {
                  "val": "relógio",
                  "offset": 56
                },
                {
                  "val": "3",
                  "offset": 80
                },
                {
                  "val": "5",
                  "offset": 93
                }
              ],
              "location": "CarrinhoComprasTest.validarSeProdutoExisteNoCarrinho(Long,String,BigDecimal,int)"
            },
            "matchedColumns": [
              0,
              1,
              3,
              6
            ],
            "keyword": "Then "
          },
          {
            "result": {
              "duration": 148923,
              "status": "passed"
            },
            "line": 40,
            "name": "carrinho deverá possuir valor total de 15.0 e quantidade de items 1",
            "match": {
              "arguments": [
                {
                  "val": "15.0",
                  "offset": 39
                },
                {
                  "val": "1",
                  "offset": 66
                }
              ],
              "location": "CarrinhoComprasTest.validarSeProdutoExisteNoCarrinho(String,int)"
            },
            "matchedColumns": [
              7
            ],
            "keyword": "Then "
          }
        ]
      }
    ],
    "name": "Adicionar item ao carrinho de compras",
    "description": "",
    "id": "adicionar-item-ao-carrinho-de-compras",
    "keyword": "Feature",
    "uri": "adicionarItem.feature"
  },
  {
    "line": 1,
    "elements": [
      {
        "comments": [
          {
            "line": 3,
            "value": "# Cria e retorna um novo carrinho de compras para o cliente passado como parâmetro."
          },
          {
            "line": 4,
            "value": "#"
          },
          {
            "line": 5,
            "value": "# Caso já exista um carrinho de compras para o cliente passado como parâmetro, este carrinho"
          },
          {
            "line": 6,
            "value": "# deverá ser retornado."
          }
        ],
        "line": 8,
        "name": "cria um carrinho de compras para o cliente",
        "description": "",
        "id": "criar-carrinho-de-compras;cria-um-carrinho-de-compras-para-o-cliente",
        "type": "scenario",
        "keyword": "Scenario",
        "steps": [
          {
            "result": {
              "duration": 78769,
              "status": "passed"
            },
            "line": 9,
            "name": "não existe carrinho criado para o usuário de cpf 01422389456",
            "match": {
              "arguments": [
                {
                  "val": "01422389456",
                  "offset": 49
                }
              ],
              "location": "CarrinhoComprasFactorySteps.java:22"
            },
            "keyword": "Given "
          },
          {
            "result": {
              "duration": 476717,
              "status": "passed"
            },
            "line": 10,
            "name": "criar o carrinho de compras para o usuário de cpf 01422389456",
            "match": {
              "arguments": [
                {
                  "val": "01422389456",
                  "offset": 50
                }
              ],
              "location": "CarrinhoComprasFactorySteps.java:28"
            },
            "keyword": "When "
          },
          {
            "result": {
              "duration": 56205,
              "status": "passed"
            },
            "line": 11,
            "name": "deverá existir carrinho de compras para o usuário de cpf 01422389456",
            "match": {
              "arguments": [
                {
                  "val": "01422389456",
                  "offset": 57
                }
              ],
              "location": "CarrinhoComprasFactorySteps.java:33"
            },
            "keyword": "Then "
          }
        ]
      },
      {
        "line": 13,
        "name": "tentar criar um carrinho de compras para o cliente que já possui de modo a reaproveitar o carrinho existente",
        "description": "",
        "id": "criar-carrinho-de-compras;tentar-criar-um-carrinho-de-compras-para-o-cliente-que-já-possui-de-modo-a-reaproveitar-o-carrinho-existente",
        "type": "scenario",
        "keyword": "Scenario",
        "steps": [
          {
            "result": {
              "status": "undefined"
            },
            "line": 14,
            "name": "já existe carrinho criado para o usuário de cpf 01422389456",
            "match": {},
            "keyword": "Given "
          },
          {
            "result": {
              "status": "skipped"
            },
            "line": 15,
            "name": "adicionar no carrinho do cliente 01422389456 produto de código: 1 descrição: relógio valor unitário: 2 quantidade 1",
            "match": {
              "arguments": [
                {
                  "val": "01422389456",
                  "offset": 33
                },
                {
                  "val": "1",
                  "offset": 64
                },
                {
                  "val": "relógio",
                  "offset": 77
                },
                {
                  "val": "2",
                  "offset": 101
                },
                {
                  "val": "1",
                  "offset": 114
                }
              ],
              "location": "CarrinhoComprasFactorySteps.java:38"
            },
            "keyword": "When "
          },
          {
            "result": {
              "status": "skipped"
            },
            "line": 16,
            "name": "o cliente de cpf 01422389456 deverá existir carrinho de compras com o produto de código: 1 descrição: relógio valor unitário: 2 quantidade 1",
            "match": {
              "arguments": [
                {
                  "val": "01422389456",
                  "offset": 17
                },
                {
                  "val": "1",
                  "offset": 89
                },
                {
                  "val": "relógio",
                  "offset": 102
                },
                {
                  "val": "2",
                  "offset": 126
                },
                {
                  "val": "1",
                  "offset": 139
                }
              ],
              "location": "CarrinhoComprasFactorySteps.java:46"
            },
            "keyword": "Then "
          }
        ]
      }
    ],
    "name": "Criar carrinho de compras",
    "description": "",
    "id": "criar-carrinho-de-compras",
    "keyword": "Feature",
    "uri": "criarCarrinho.feature"
  },
  {
    "line": 1,
    "elements": [
      {
        "line": 7,
        "name": "invalidar carrinho de compras do cliente",
        "description": "",
        "id": "criar-carrinho-de-compras;invalidar-carrinho-de-compras-do-cliente",
        "type": "scenario",
        "keyword": "Scenario",
        "steps": [
          {
            "result": {
              "status": "undefined"
            },
            "line": 8,
            "name": "já existe carrinho criado para o usuário de cpf 01422389456",
            "match": {},
            "keyword": "Given "
          },
          {
            "result": {
              "status": "skipped"
            },
            "line": 9,
            "name": "invalidar o carrinho de compras para o usuário de cpf 01422389456",
            "match": {
              "arguments": [
                {
                  "val": "01422389456",
                  "offset": 54
                }
              ],
              "location": "CarrinhoComprasFactorySteps.java:57"
            },
            "keyword": "When "
          },
          {
            "result": {
              "status": "skipped"
            },
            "line": 10,
            "name": "não deverá existir carrinho de compras para o usuário de cpf 01422389456",
            "match": {
              "arguments": [
                {
                  "val": "01422389456",
                  "offset": 61
                }
              ],
              "location": "CarrinhoComprasFactorySteps.java:61"
            },
            "keyword": "Then "
          }
        ]
      }
    ],
    "name": "Criar carrinho de compras",
    "description": "\r\n* Invalida um carrinho de compras quando o cliente faz um checkout ou sua sessão expirar. Deve\r\n* ser efetuada a remoção do carrinho do cliente passado como parâmetro da listagem de carrinhos\r\n* de compras.",
    "id": "criar-carrinho-de-compras",
    "keyword": "Feature",
    "uri": "invalidarCarrinho.feature"
  },
  {
    "line": 1,
    "elements": [
      {
        "line": 14,
        "name": "Remover item pelo código do produto",
        "description": "",
        "id": "remover-item-do-carrinho-de-compras;remover-item-pelo-código-do-produto;;2",
        "type": "scenario",
        "keyword": "Scenario Outline",
        "steps": [
          {
            "result": {
              "duration": 45128,
              "status": "passed"
            },
            "line": 8,
            "name": "o carrinho esta vazio",
            "match": {
              "location": "CarrinhoComprasTest.instanciarCarrinho()"
            },
            "keyword": "Given "
          },
          {
            "result": {
              "duration": 768820,
              "status": "passed"
            },
            "line": 9,
            "name": "o usuário adicionar o produto de código: 1 descrição: relógio valor unitário: 3.75 quantidade 0",
            "match": {
              "arguments": [
                {
                  "val": "1",
                  "offset": 41
                },
                {
                  "val": "relógio",
                  "offset": 54
                },
                {
                  "val": "3.75",
                  "offset": 78
                },
                {
                  "val": "0",
                  "offset": 94
                }
              ],
              "location": "CarrinhoComprasTest.adicionarProduto(Long,String,BigDecimal,int)"
            },
            "matchedColumns": [
              0,
              2,
              3,
              4
            ],
            "keyword": "When "
          },
          {
            "result": {
              "duration": 695384,
              "status": "passed"
            },
            "line": 10,
            "name": "o usuário remove o produto de codigo 1",
            "match": {
              "arguments": [
                {
                  "val": "1",
                  "offset": 37
                }
              ],
              "location": "CarrinhoComprasTest.removeItem(Long)"
            },
            "matchedColumns": [
              1
            ],
            "keyword": "Then "
          },
          {
            "result": {
              "duration": 120615,
              "status": "passed"
            },
            "line": 11,
            "name": "carrinho deverá possuir valor total de 0 e quantidade de items 0",
            "match": {
              "arguments": [
                {
                  "val": "0",
                  "offset": 39
                },
                {
                  "val": "0",
                  "offset": 63
                }
              ],
              "location": "CarrinhoComprasTest.validarSeProdutoExisteNoCarrinho(String,int)"
            },
            "matchedColumns": [
              4,
              5
            ],
            "keyword": "Then "
          }
        ]
      },
      {
        "line": 15,
        "name": "Remover item pelo código do produto",
        "description": "",
        "id": "remover-item-do-carrinho-de-compras;remover-item-pelo-código-do-produto;;3",
        "type": "scenario",
        "keyword": "Scenario Outline",
        "steps": [
          {
            "result": {
              "duration": 66462,
              "status": "passed"
            },
            "line": 8,
            "name": "o carrinho esta vazio",
            "match": {
              "location": "CarrinhoComprasTest.instanciarCarrinho()"
            },
            "keyword": "Given "
          },
          {
            "result": {
              "duration": 239179,
              "status": "passed"
            },
            "line": 9,
            "name": "o usuário adicionar o produto de código: 1 descrição: relógio valor unitário: 3.75 quantidade 1",
            "match": {
              "arguments": [
                {
                  "val": "1",
                  "offset": 41
                },
                {
                  "val": "relógio",
                  "offset": 54
                },
                {
                  "val": "3.75",
                  "offset": 78
                },
                {
                  "val": "1",
                  "offset": 94
                }
              ],
              "location": "CarrinhoComprasTest.adicionarProduto(Long,String,BigDecimal,int)"
            },
            "matchedColumns": [
              0,
              2,
              3,
              4
            ],
            "keyword": "When "
          },
          {
            "result": {
              "duration": 148103,
              "status": "passed"
            },
            "line": 10,
            "name": "o usuário remove o produto de codigo 5",
            "match": {
              "arguments": [
                {
                  "val": "5",
                  "offset": 37
                }
              ],
              "location": "CarrinhoComprasTest.removeItem(Long)"
            },
            "matchedColumns": [
              1
            ],
            "keyword": "Then "
          },
          {
            "result": {
              "duration": 116513,
              "status": "passed"
            },
            "line": 11,
            "name": "carrinho deverá possuir valor total de 3.75 e quantidade de items 1",
            "match": {
              "arguments": [
                {
                  "val": "3.75",
                  "offset": 39
                },
                {
                  "val": "1",
                  "offset": 66
                }
              ],
              "location": "CarrinhoComprasTest.validarSeProdutoExisteNoCarrinho(String,int)"
            },
            "matchedColumns": [
              4,
              5
            ],
            "keyword": "Then "
          }
        ]
      },
      {
        "line": 24,
        "name": "Remover item pelo indice produto",
        "description": "",
        "id": "remover-item-do-carrinho-de-compras;remover-item-pelo-indice-produto;;2",
        "type": "scenario",
        "keyword": "Scenario Outline",
        "steps": [
          {
            "result": {
              "duration": 42666,
              "status": "passed"
            },
            "line": 18,
            "name": "o carrinho esta vazio",
            "match": {
              "location": "CarrinhoComprasTest.instanciarCarrinho()"
            },
            "keyword": "Given "
          },
          {
            "result": {
              "duration": 226871,
              "status": "passed"
            },
            "line": 19,
            "name": "o usuário adicionar o produto de código: 1 descrição: relógio valor unitário: 3.75 quantidade 0",
            "match": {
              "arguments": [
                {
                  "val": "1",
                  "offset": 41
                },
                {
                  "val": "relógio",
                  "offset": 54
                },
                {
                  "val": "3.75",
                  "offset": 78
                },
                {
                  "val": "0",
                  "offset": 94
                }
              ],
              "location": "CarrinhoComprasTest.adicionarProduto(Long,String,BigDecimal,int)"
            },
            "matchedColumns": [
              0,
              2,
              3,
              4
            ],
            "keyword": "When "
          },
          {
            "result": {
              "duration": 276102,
              "status": "passed"
            },
            "line": 20,
            "name": "o usuário remove o produto de indice 0",
            "match": {
              "arguments": [
                {
                  "val": "0",
                  "offset": 37
                }
              ],
              "location": "CarrinhoComprasTest.removeItem(Integer)"
            },
            "matchedColumns": [
              1
            ],
            "keyword": "Then "
          },
          {
            "result": {
              "duration": 131282,
              "status": "passed"
            },
            "line": 21,
            "name": "carrinho deverá possuir valor total de 0 e quantidade de items 0",
            "match": {
              "arguments": [
                {
                  "val": "0",
                  "offset": 39
                },
                {
                  "val": "0",
                  "offset": 63
                }
              ],
              "location": "CarrinhoComprasTest.validarSeProdutoExisteNoCarrinho(String,int)"
            },
            "matchedColumns": [
              4,
              5
            ],
            "keyword": "Then "
          }
        ]
      },
      {
        "line": 25,
        "name": "Remover item pelo indice produto",
        "description": "",
        "id": "remover-item-do-carrinho-de-compras;remover-item-pelo-indice-produto;;3",
        "type": "scenario",
        "keyword": "Scenario Outline",
        "steps": [
          {
            "result": {
              "duration": 53743,
              "status": "passed"
            },
            "line": 18,
            "name": "o carrinho esta vazio",
            "match": {
              "location": "CarrinhoComprasTest.instanciarCarrinho()"
            },
            "keyword": "Given "
          },
          {
            "result": {
              "duration": 249846,
              "status": "passed"
            },
            "line": 19,
            "name": "o usuário adicionar o produto de código: 1 descrição: relógio valor unitário: 3.75 quantidade 1",
            "match": {
              "arguments": [
                {
                  "val": "1",
                  "offset": 41
                },
                {
                  "val": "relógio",
                  "offset": 54
                },
                {
                  "val": "3.75",
                  "offset": 78
                },
                {
                  "val": "1",
                  "offset": 94
                }
              ],
              "location": "CarrinhoComprasTest.adicionarProduto(Long,String,BigDecimal,int)"
            },
            "matchedColumns": [
              0,
              2,
              3,
              4
            ],
            "keyword": "When "
          },
          {
            "result": {
              "duration": 185026,
              "status": "passed"
            },
            "line": 20,
            "name": "o usuário remove o produto de indice 2",
            "match": {
              "arguments": [
                {
                  "val": "2",
                  "offset": 37
                }
              ],
              "location": "CarrinhoComprasTest.removeItem(Integer)"
            },
            "matchedColumns": [
              1
            ],
            "keyword": "Then "
          },
          {
            "result": {
              "duration": 411897,
              "status": "passed"
            },
            "line": 21,
            "name": "carrinho deverá possuir valor total de 3.75 e quantidade de items 1",
            "match": {
              "arguments": [
                {
                  "val": "3.75",
                  "offset": 39
                },
                {
                  "val": "1",
                  "offset": 66
                }
              ],
              "location": "CarrinhoComprasTest.validarSeProdutoExisteNoCarrinho(String,int)"
            },
            "matchedColumns": [
              4,
              5
            ],
            "keyword": "Then "
          }
        ]
      }
    ],
    "name": "Remover item do carrinho de compras",
    "description": "",
    "id": "remover-item-do-carrinho-de-compras",
    "keyword": "Feature",
    "uri": "removerItem.feature"
  },
  {
    "line": 1,
    "elements": [
      {
        "comments": [
          {
            "line": 3,
            "value": "# Retorna o valor do ticket médio no momento da chamada ao método. O valor do ticket médio é a"
          },
          {
            "line": 4,
            "value": "# soma do valor total de todos os carrinhos de compra dividido pela quantidade de carrinhos de"
          },
          {
            "line": 5,
            "value": "# compra. O valor retornado deverá ser arredondado com duas casas decimais, seguindo a regra:"
          },
          {
            "line": 6,
            "value": "# 0-4 deve ser arredondado para baixo e 5-9 deve ser arredondado para cima."
          }
        ],
        "line": 8,
        "name": "calcular ticket médio",
        "description": "",
        "id": "criar-carrinho-de-compras;calcular-ticket-médio",
        "type": "scenario",
        "keyword": "Scenario",
        "steps": [
          {
            "result": {
              "duration": 278974,
              "status": "passed"
            },
            "line": 9,
            "name": "adicionar no carrinho do cliente 01422389456 produto de código: 1 descrição: relógio valor unitário: 2 quantidade 1",
            "match": {
              "arguments": [
                {
                  "val": "01422389456",
                  "offset": 33
                },
                {
                  "val": "1",
                  "offset": 64
                },
                {
                  "val": "relógio",
                  "offset": 77
                },
                {
                  "val": "2",
                  "offset": 101
                },
                {
                  "val": "1",
                  "offset": 114
                }
              ],
              "location": "CarrinhoComprasFactorySteps.java:38"
            },
            "keyword": "When "
          },
          {
            "result": {
              "duration": 240820,
              "status": "passed"
            },
            "line": 10,
            "name": "adicionar no carrinho do cliente 12345678910 produto de código: 1 descrição: relógio valor unitário: 10 quantidade 1",
            "match": {
              "arguments": [
                {
                  "val": "12345678910",
                  "offset": 33
                },
                {
                  "val": "1",
                  "offset": 64
                },
                {
                  "val": "relógio",
                  "offset": 77
                },
                {
                  "val": "10",
                  "offset": 101
                },
                {
                  "val": "1",
                  "offset": 115
                }
              ],
              "location": "CarrinhoComprasFactorySteps.java:38"
            },
            "keyword": "When "
          },
          {
            "result": {
              "duration": 130051,
              "status": "passed"
            },
            "line": 11,
            "name": "o ticket médio deverá ser de 6.00 reais",
            "match": {
              "arguments": [
                {
                  "val": "6.00",
                  "offset": 29
                }
              ],
              "location": "CarrinhoComprasFactorySteps.java:65"
            },
            "keyword": "Then "
          }
        ]
      },
      {
        "line": 13,
        "name": "calcular ticket médio roundBottom 0-4",
        "description": "",
        "id": "criar-carrinho-de-compras;calcular-ticket-médio-roundbottom-0-4",
        "type": "scenario",
        "keyword": "Scenario",
        "steps": [
          {
            "result": {
              "duration": 208000,
              "status": "passed"
            },
            "line": 14,
            "name": "adicionar no carrinho do cliente 01422389456 produto de código: 1 descrição: relógio valor unitário: 2 quantidade 1",
            "match": {
              "arguments": [
                {
                  "val": "01422389456",
                  "offset": 33
                },
                {
                  "val": "1",
                  "offset": 64
                },
                {
                  "val": "relógio",
                  "offset": 77
                },
                {
                  "val": "2",
                  "offset": 101
                },
                {
                  "val": "1",
                  "offset": 114
                }
              ],
              "location": "CarrinhoComprasFactorySteps.java:38"
            },
            "keyword": "When "
          },
          {
            "result": {
              "duration": 167795,
              "status": "passed"
            },
            "line": 15,
            "name": "adicionar no carrinho do cliente 12345678910 produto de código: 1 descrição: relógio valor unitário: 2 quantidade 1",
            "match": {
              "arguments": [
                {
                  "val": "12345678910",
                  "offset": 33
                },
                {
                  "val": "1",
                  "offset": 64
                },
                {
                  "val": "relógio",
                  "offset": 77
                },
                {
                  "val": "2",
                  "offset": 101
                },
                {
                  "val": "1",
                  "offset": 114
                }
              ],
              "location": "CarrinhoComprasFactorySteps.java:38"
            },
            "keyword": "When "
          },
          {
            "result": {
              "duration": 224000,
              "status": "passed"
            },
            "line": 16,
            "name": "adicionar no carrinho do cliente 45465456456 produto de código: 1 descrição: relógio valor unitário: 6 quantidade 1",
            "match": {
              "arguments": [
                {
                  "val": "45465456456",
                  "offset": 33
                },
                {
                  "val": "1",
                  "offset": 64
                },
                {
                  "val": "relógio",
                  "offset": 77
                },
                {
                  "val": "6",
                  "offset": 101
                },
                {
                  "val": "1",
                  "offset": 114
                }
              ],
              "location": "CarrinhoComprasFactorySteps.java:38"
            },
            "keyword": "When "
          },
          {
            "result": {
              "duration": 106667,
              "status": "passed"
            },
            "line": 17,
            "name": "o ticket médio deverá ser de 3.33 reais",
            "match": {
              "arguments": [
                {
                  "val": "3.33",
                  "offset": 29
                }
              ],
              "location": "CarrinhoComprasFactorySteps.java:65"
            },
            "keyword": "Then "
          }
        ]
      },
      {
        "line": 19,
        "name": "calcular ticket médio roundTop 5-9",
        "description": "",
        "id": "criar-carrinho-de-compras;calcular-ticket-médio-roundtop-5-9",
        "type": "scenario",
        "keyword": "Scenario",
        "steps": [
          {
            "result": {
              "duration": 269128,
              "status": "passed"
            },
            "line": 20,
            "name": "adicionar no carrinho do cliente 01422389456 produto de código: 1 descrição: relógio valor unitário: 1 quantidade 1",
            "match": {
              "arguments": [
                {
                  "val": "01422389456",
                  "offset": 33
                },
                {
                  "val": "1",
                  "offset": 64
                },
                {
                  "val": "relógio",
                  "offset": 77
                },
                {
                  "val": "1",
                  "offset": 101
                },
                {
                  "val": "1",
                  "offset": 114
                }
              ],
              "location": "CarrinhoComprasFactorySteps.java:38"
            },
            "keyword": "When "
          },
          {
            "result": {
              "duration": 356513,
              "status": "passed"
            },
            "line": 21,
            "name": "adicionar no carrinho do cliente 12345678910 produto de código: 1 descrição: relógio valor unitário: 1 quantidade 1",
            "match": {
              "arguments": [
                {
                  "val": "12345678910",
                  "offset": 33
                },
                {
                  "val": "1",
                  "offset": 64
                },
                {
                  "val": "relógio",
                  "offset": 77
                },
                {
                  "val": "1",
                  "offset": 101
                },
                {
                  "val": "1",
                  "offset": 114
                }
              ],
              "location": "CarrinhoComprasFactorySteps.java:38"
            },
            "keyword": "When "
          },
          {
            "result": {
              "duration": 235487,
              "status": "passed"
            },
            "line": 22,
            "name": "adicionar no carrinho do cliente 45465456456 produto de código: 1 descrição: relógio valor unitário: 1 quantidade 1",
            "match": {
              "arguments": [
                {
                  "val": "45465456456",
                  "offset": 33
                },
                {
                  "val": "1",
                  "offset": 64
                },
                {
                  "val": "relógio",
                  "offset": 77
                },
                {
                  "val": "1",
                  "offset": 101
                },
                {
                  "val": "1",
                  "offset": 114
                }
              ],
              "location": "CarrinhoComprasFactorySteps.java:38"
            },
            "keyword": "When "
          },
          {
            "result": {
              "duration": 967384,
              "status": "passed"
            },
            "line": 23,
            "name": "adicionar no carrinho do cliente 12312312333 produto de código: 1 descrição: relógio valor unitário: 1 quantidade 1",
            "match": {
              "arguments": [
                {
                  "val": "12312312333",
                  "offset": 33
                },
                {
                  "val": "1",
                  "offset": 64
                },
                {
                  "val": "relógio",
                  "offset": 77
                },
                {
                  "val": "1",
                  "offset": 101
                },
                {
                  "val": "1",
                  "offset": 114
                }
              ],
              "location": "CarrinhoComprasFactorySteps.java:38"
            },
            "keyword": "When "
          },
          {
            "result": {
              "duration": 213744,
              "status": "passed"
            },
            "line": 24,
            "name": "adicionar no carrinho do cliente 67676767677 produto de código: 1 descrição: relógio valor unitário: 1 quantidade 1",
            "match": {
              "arguments": [
                {
                  "val": "67676767677",
                  "offset": 33
                },
                {
                  "val": "1",
                  "offset": 64
                },
                {
                  "val": "relógio",
                  "offset": 77
                },
                {
                  "val": "1",
                  "offset": 101
                },
                {
                  "val": "1",
                  "offset": 114
                }
              ],
              "location": "CarrinhoComprasFactorySteps.java:38"
            },
            "keyword": "When "
          },
          {
            "result": {
              "duration": 226872,
              "status": "passed"
            },
            "line": 25,
            "name": "adicionar no carrinho do cliente 34344343443 produto de código: 1 descrição: relógio valor unitário: 5 quantidade 1",
            "match": {
              "arguments": [
                {
                  "val": "34344343443",
                  "offset": 33
                },
                {
                  "val": "1",
                  "offset": 64
                },
                {
                  "val": "relógio",
                  "offset": 77
                },
                {
                  "val": "5",
                  "offset": 101
                },
                {
                  "val": "1",
                  "offset": 114
                }
              ],
              "location": "CarrinhoComprasFactorySteps.java:38"
            },
            "keyword": "When "
          },
          {
            "result": {
              "duration": 109128,
              "status": "passed"
            },
            "line": 26,
            "name": "o ticket médio deverá ser de 1.67 reais",
            "match": {
              "arguments": [
                {
                  "val": "1.67",
                  "offset": 29
                }
              ],
              "location": "CarrinhoComprasFactorySteps.java:65"
            },
            "keyword": "Then "
          }
        ]
      }
    ],
    "name": "Criar carrinho de compras",
    "description": "",
    "id": "criar-carrinho-de-compras",
    "keyword": "Feature",
    "uri": "ticketMedio.feature"
  }
]